Chapter 1 Insect indicators | DRAFT_insectIndicators.knit
…
But the boot_stat object also stores the individual bootstrap values for later computation. By default, we use 999 bootstrap samples, which here results in 999 samples * 6 groups = 5994 rows of bootstrap values.

poll_richness_boot[2]

## $bootstrap_values
## # A tibble: 5,994 × 3
## # Groups:   year, region_name [6]
##     year region_name boot_values
##    <int> <chr>             <dbl>
##  1  2020 Østlandet          63.9
##  2  2020 Østlandet          52.4
##  3  2020 Østlandet          50.4
##  4  2020 Østlandet          53.5
##  5  2020 Østlandet          60.4
##  6  2020 Østlandet          50.3
##  7  2020 Østlandet          62  
##  8  2020 Østlandet          59.1
##  9  2020 Østlandet          66.4
## 10  2020 Østlandet          57.3
## # ℹ 5,984 more rows
…
1.8.4.5 Relationship between Symphyta and Parasitica in semi-natural land

symphyta_fam <- c("Argidae", "Cephidae", "Cimbicidae", 
                  "Diprionidae", "Orussidae", "Pamphiliidae", 
                  "Pergidae", "Siricidae", "Anaxyelidae",
                  "Tenthredinidae", "Xiphydriidae", "Xyelidae") 

symphyta_sn <- get_observations(subset_year = 2020:2022,
                                subset_families = symphyta_fam,
                                subset_habitat = "Semi-nat")

symphyta_sn

## # A tibble: 60 × 8
##     year locality    habitat_type region_name no_species shannon_div mean_no_asv_per_species GDE_by_asv
##    <int> <chr>       <chr>        <chr>            <int>       <dbl>                   <dbl>      <dbl>
##  1  2020 Semi-nat_01 Semi-nat     Østlandet           38        31.9                    1.66       0.84
##  2  2020 Semi-nat_02 Semi-nat     Østlandet           16        15.7                    1.06       0.98
##  3  2020 Semi-nat_03 Semi-nat     Østlandet           13        12.3                    1.23       0.95
##  4  2020 Semi-nat_04 Semi-nat     Østlandet           39        34.6                    1.38       0.89
##  5  2020 Semi-nat_05 Semi-nat     Østlandet           65        58.5                    1.58       0.9 
##  6  2020 Semi-nat_06 Semi-nat     Østlandet           22        20.0                    1.14       0.91
##  7  2020 Semi-nat_07 Semi-nat     Østlandet           36        33.2                    1.31       0.92
##  8  2020 Semi-nat_08 Semi-nat     Østlandet           46        40.4                    1.48       0.88
##  9  2020 Semi-nat_09 Semi-nat     Østlandet           21        18.2                    1.62       0.86
## 10  2020 Semi-nat_10 Semi-nat     Østlandet           68        56.9                    1.62       0.84
## # ℹ 50 more rows
…
parasitica_sn <- get_observations(subset_year = 2020:2022,
                                subset_families = parasitica_fam,
                                subset_habitat = "Semi-nat")

parasitica_sn

## # A tibble: 60 × 8
##     year locality    habitat_type region_name no_species shannon_div mean_no_asv_per_species GDE_by_asv
##    <int> <chr>       <chr>        <chr>            <int>       <dbl>                   <dbl>      <dbl>
##  1  2020 Semi-nat_01 Semi-nat     Østlandet          480        413.                    1.43       0.86
##  2  2020 Semi-nat_02 Semi-nat     Østlandet          112        107.                    1.12       0.95
##  3  2020 Semi-nat_03 Semi-nat     Østlandet          119        113.                    1.14       0.95
##  4  2020 Semi-nat_04 Semi-nat     Østlandet          369        316.                    1.47       0.86
##  5  2020 Semi-nat_05 Semi-nat     Østlandet          642        526.                    1.64       0.82
##  6  2020 Semi-nat_06 Semi-nat     Østlandet          190        177.                    1.19       0.93
##  7  2020 Semi-nat_07 Semi-nat     Østlandet          253        233.                    1.23       0.92
##  8  2020 Semi-nat_08 Semi-nat     Østlandet          323        292.                    1.27       0.9 
##  9  2020 Semi-nat_09 Semi-nat     Østlandet          216        187.                    1.38       0.86
## 10  2020 Semi-nat_10 Semi-nat     Østlandet          531        463.                    1.41       0.87
## # ℹ 50 more rows
…
hGressIndVals_to_exp <- norway_reg_NBBM  %>% 
  inner_join(hGressIndVals_to_exp,
            by = c("region" = "region"),
            multiple = "all")

hGressIndVals_to_exp

## Simple feature collection with 36 features and 5 fields
## Geometry type: MULTIPOLYGON
## Dimension:     XY
## Bounding box:  xmin: -76208 ymin: 6450245 xmax: 468357.5 ymax: 7237323
## Projected CRS: ETRS89 / UTM zone 33N
## # A tibble: 36 × 6
##    region                                                                                    geom  year ind_value ind_lower2.5 ind_upper97.5
##    <chr>                                                                       <MULTIPOLYGON [m]> <int>     <dbl>        <dbl>         <dbl>
##  1 Sør    (((-31605 6513854, -31464 6513743, -31449 6513590, -32255 6512745, -32512 6512740, -...  2013     0.596        0.423         0.635
##  2 Sør    (((-31605 6513854, -31464 6513743, -31449 6513590, -32255 6512745, -32512 6512740, -...  2014     0.635        0.5           0.673
##  3 Sør    (((-31605 6513854, -31464 6513743, -31449 6513590, -32255 6512745, -32512 6512740, -...  2015     0.519        0.385         0.558
##  4 Sør    (((-31605 6513854, -31464 6513743, -31449 6513590, -32255 6512745, -32512 6512740, -...  2016     0.635        0.462         0.673
##  5 Sør    (((-31605 6513854, -31464 6513743, -31449 6513590, -32255 6512745, -32512 6512740, -...  2017     0.615        0.423         0.654
##  6 Sør    (((-31605 6513854, -31464 6513743, -31449 6513590, -32255 6512745, -32512 6512740, -...  2018     0.577        0.462         0.615
##  7 Sør    (((-31605 6513854, -31464 6513743, -31449 6513590, -32255 6512745, -32512 6512740, -...  2019     0.519        0.422         0.558
##  8 Sør    (((-31605 6513854, -31464 6513743, -31449 6513590, -32255 6512745, -32512 6512740, -...  2020     0.593        0.444         0.593
##  9 Sør    (((-31605 6513854, -31464 6513743, -31449 6513590, -32255 6512745, -32512 6512740, -...  2021     0.519        0.389         0.593
## 10 Sør    (((-31605 6513854, -31464 6513743, -31449 6513590, -32255 6512745, -32512 6512740, -...  2022     0.593        0.370         0.704
## # ℹ 26 more rows
…
sGressIndVals_to_exp <- norway_reg_NBBM  %>% 
  inner_join(sGressIndVals_to_exp,
            by = c("region" = "region"),
            multiple = "all")

sGressIndVals_to_exp

## Simple feature collection with 36 features and 5 fields
## Geometry type: MULTIPOLYGON
## Dimension:     XY
## Bounding box:  xmin: -76208 ymin: 6450245 xmax: 468357.5 ymax: 7237323
## Projected CRS: ETRS89 / UTM zone 33N
## # A tibble: 36 × 6
##    region                                                                                    geom  year ind_value ind_lower2.5 ind_upper97.5
##    <chr>                                                                       <MULTIPOLYGON [m]> <int>     <dbl>        <dbl>         <dbl>
##  1 Sør    (((-31605 6513854, -31464 6513743, -31449 6513590, -32255 6512745, -32512 6512740, -...  2013     0.259        0.151         0.295
##  2 Sør    (((-31605 6513854, -31464 6513743, -31449 6513590, -32255 6512745, -32512 6512740, -...  2014     0.374        0.273         0.424
##  3 Sør    (((-31605 6513854, -31464 6513743, -31449 6513590, -32255 6512745, -32512 6512740, -...  2015     0.345        0.230         0.360
##  4 Sør    (((-31605 6513854, -31464 6513743, -31449 6513590, -32255 6512745, -32512 6512740, -...  2016     0.302        0.216         0.353
##  5 Sør    (((-31605 6513854, -31464 6513743, -31449 6513590, -32255 6512745, -32512 6512740, -...  2017     0.345        0.237         0.367
##  6 Sør    (((-31605 6513854, -31464 6513743, -31449 6513590, -32255 6512745, -32512 6512740, -...  2018     0.309        0.201         0.345
##  7 Sør    (((-31605 6513854, -31464 6513743, -31449 6513590, -32255 6512745, -32512 6512740, -...  2019     0.388        0.281         0.417
##  8 Sør    (((-31605 6513854, -31464 6513743, -31449 6513590, -32255 6512745, -32512 6512740, -...  2020     0.419        0.284         0.432
##  9 Sør    (((-31605 6513854, -31464 6513743, -31449 6513590, -32255 6512745, -32512 6512740, -...  2021     0.399        0.270         0.439
## 10 Sør    (((-31605 6513854, -31464 6513743, -31449 6513590, -32255 6512745, -32512 6512740, -...  2022     0.358        0.25          0.399
## # ℹ 26 more rows
…
